#!/bin/sh -- : enable syntax coloring in mcedit

65.51.67.0/24
65.51.243.112/28
95.140.34.187

# 38.108.121.0/25
# 38.96.192.160/27
# 183.82.46.0/26

123.176.39.241/28
#202.53.12.9/30
#202.53.10.194/26
112.133.195.48/28
122.252.230.160/28
#115.254.4.113/29
183.82.45.192/28
27.116.17.224/27
63.243.204.32/27
#66.198.177.0/26
184.154.25.234
112.133.192.194
112.133.204.16/28
184.154.93.74
108.54.168.238
122.252.246.66
112.133.238.88/29

######### 100 TB
#206.190.151.10
#198.105.209.148
#206.190.150.6

######### ravi ip
174.44.186.18

######### shree ip
69.122.68.135
#66.249.83.152
#69.122.67.173
#24.45.100.136
#24.45.110.37
#75.127.153.206

## END ##
